Division,WeightClassKg,Place,Name,Team,BodyweightKg,Best3SquatKg,Best3BenchKg,Best3DeadliftKg,TotalKg,Equipment,Event,Sex,BirthDate
Girls,44.23,1,June Acevedo,Donna,43.14,142.88,70.31,138.35,351.53,Unlimited,SBD,F,
Girls,44.23,2,Madison Ramirez,Weslaco East,42.91,127.01,65.77,115.67,308.44,Unlimited,SBD,F,
Girls,44.23,3,Savannah Vargas,San Antonio Southwest Legacy,43.18,113.4,61.23,106.59,281.23,Unlimited,SBD,F,
Girls,44.23,4,Avery Cano,Victoria East,43.82,102.06,49.9,115.67,267.62,Unlimited,SBD,F,
Girls,44.23,5,Jailyn Rios,Mission,39.6,90.72,38.56,122.47,251.74,Unlimited,SBD,F,
Girls,44.23,6,Alley Villarreal,Harlingen South,43.45,92.99,54.43,104.33,251.74,Unlimited,SBD,F,
Girls,44.23,7,Alexa Rodriguez,McAllen Rowe,43.86,88.45,47.63,92.99,229.06,Unlimited,SBD,F,
Girls,44.23,8,Audrey Hernandez,PSJA Memorial,43.27,79.38,40.82,86.18,206.38,Unlimited,SBD,F,
Girls,44.23,9,Kimberly Salinas,PSJA Memorial,41.78,79.38,45.36,77.11,201.85,Unlimited,SBD,F,
Girls,44.23,10,Katelyn Bauer,Harlingen South,42.32,70.31,45.36,86.18,201.85,Unlimited,SBD,F,
Girls,44.23,11,Leilah Cabrera,Donna,40.69,81.65,34.02,83.91,199.58,Unlimited,SBD,F,
Girls,44.23,12,Mia Perales,McAllen,36.97,74.84,29.48,72.57,176.9,Unlimited,SBD,F,
Girls,44.23,13,Nayeli Carbonell,Edinburg Vela,44.23,70.31,36.29,65.77,172.37,Unlimited,SBD,F,
Girls,44.23,DQ,Karia Ledesma,Seguin,42,,,,,Unlimited,SBD,F,
Girls,47.85,1,Jennifer Vela,La Joya Juarez-Lincoln,46.45,142.88,95.25,138.35,376.48,Unlimited,SBD,F,
Girls,47.85,2,Leah Galvan,Weslaco East,46.27,122.47,68.04,142.88,333.39,Unlimited,SBD,F,
Girls,47.85,3,Geily Patino,La Joya Juarez-Lincoln,47.13,120.2,54.43,115.67,290.3,Unlimited,SBD,F,
Girls,47.85,4,Marlynn Valladares,Donna North,46.4,102.06,63.5,117.93,283.5,Unlimited,SBD,F,
Girls,47.85,5,Aalyah Alonzo,Harlingen South,46.54,108.86,56.7,102.06,267.62,Unlimited,SBD,F,
Girls,47.85,6,Sarai Garza,McAllen Rowe,47.85,120.2,49.9,92.99,263.08,Unlimited,SBD,F,
Girls,47.85,7,Presley Just,Seguin,46.99,102.06,58.97,88.45,249.48,Unlimited,SBD,F,
Girls,47.85,8,Aaliyah Garcia,Victoria East,47.26,92.99,54.43,102.06,249.48,Unlimited,SBD,F,
Girls,47.85,9,Demi Acevedo,McAllen Rowe,47.36,88.45,56.7,97.52,242.67,Unlimited,SBD,F,
Girls,47.85,10,Kyleigh Mozisek,Victoria East,47.4,90.72,49.9,97.52,238.14,Unlimited,SBD,F,
Girls,47.85,DQ,Maiah Perez,La Joya Palmview,47.26,90.72,52.16,,,Unlimited,SBD,F,
Girls,47.85,DQ,Aaliyah Izaguirre,Victoria East,47.63,,,,,Unlimited,SBD,F,
Girls,47.85,DQ,Kaliyah Ledesma,Seguin,46.45,,,,,Unlimited,SBD,F,
Girls,47.85,DQ,Kenna Mosher,Seguin,47.81,95.25,,,,Unlimited,SBD,F,
Girls,51.94,1,Maya Monreal,Harlingen South,50.76,131.54,74.84,163.29,369.68,Unlimited,SBD,F,
Girls,51.94,2,Elvira Lopez,Donna,50.58,140.61,74.84,136.08,351.53,Unlimited,SBD,F,
Girls,51.94,3,Lily Contreras,McAllen Memorial,49.58,129.27,58.97,136.08,324.32,Unlimited,SBD,F,
Girls,51.94,4,Maleni Flores,La Joya Juarez-Lincoln,50.39,124.74,68.04,124.74,317.51,Unlimited,SBD,F,
Girls,51.94,5,Bryana Izaguirre,La Joya Juarez-Lincoln,50.76,120.2,63.5,111.13,294.84,Unlimited,SBD,F,
Girls,51.94,6,McKayla Sanchez,Seguin,50.62,127.01,58.97,106.59,292.57,Unlimited,SBD,F,
Girls,51.94,7,Valerie Campos,McAllen,50.35,127.01,61.23,102.06,290.3,Unlimited,SBD,F,
Girls,51.94,8,Baillynn Belmarez,Donna,51.44,120.2,45.36,106.59,272.16,Unlimited,SBD,F,
Girls,51.94,9,Gianna Llorente,Brownsville Rivera,49.62,102.06,54.43,106.59,263.08,Unlimited,SBD,F,
Girls,51.94,DQ,Kaytlynn Rodriguez,Harlingen South,50.48,,,,,Unlimited,SBD,F,
Girls,51.94,DQ,Kelsie Torres,Seguin,49.99,,,,,Unlimited,SBD,F,
Girls,51.94,DQ,Adrianna Bosquez,Victoria East,51.3,,,,,Unlimited,SBD,F,
Girls,51.94,DQ,Jazlyn Ramos,McAllen Rowe,51.03,,,,,Unlimited,SBD,F,
Girls,56.02,1,Jaky Reyna,McAllen Memorial,55.11,165.56,86.18,145.15,396.89,Unlimited,SBD,F,
Girls,56.02,2,Marley Salazar,Harlingen South,53.71,149.69,88.45,145.15,383.29,Unlimited,SBD,F,
Girls,56.02,3,Maria Escobedo,La Joya Juarez-Lincoln,54.75,156.49,92.99,127.01,376.48,Unlimited,SBD,F,
Girls,56.02,4,Belicia Vega,Edinburg Vela,54.48,147.42,88.45,138.35,374.21,Unlimited,SBD,F,
Girls,56.02,5,Joselin Jurado,Donna North,54.7,131.54,74.84,149.69,356.07,Unlimited,SBD,F,
Girls,56.02,6,Yaneiris Maldonado,Victoria East,55.52,136.08,81.65,136.08,353.8,Unlimited,SBD,F,
Girls,56.02,7,Zoe Amador,San Antonio Southside,55.07,140.61,74.84,136.08,351.53,Unlimited,SBD,F,
Girls,56.02,8,Carleigh Hebert,San Antonio Wagner,55.66,122.47,68.04,140.61,331.12,Unlimited,SBD,F,
Girls,56.02,9,Danna Ruiz,Rio Grande City,53.21,136.08,61.23,131.54,328.85,Unlimited,SBD,F,
Girls,56.02,10,Denise Torres,Donna,55.97,133.81,74.84,120.2,328.85,Unlimited,SBD,F,
Girls,56.02,11,Jannette Alvarez,McAllen Rowe,54.52,106.59,65.77,127.01,299.37,Unlimited,SBD,F,
Girls,56.02,12,Hailey Carrejo,McAllen Rowe,55.47,115.67,65.77,113.4,294.84,Unlimited,SBD,F,
Girls,56.02,13,Alyssa Espinoza,San Antonio Southside,54.7,106.59,61.23,97.52,265.35,Unlimited,SBD,F,
Girls,56.02,DQ,Kazariah Spaude,Seguin,55.75,,,,,Unlimited,SBD,F,
Girls,56.02,DQ,Vida Hernandez,Seguin,56.02,,,,,Unlimited,SBD,F,
Girls,60.1,1,Luna Cuevas,McAllen Memorial,59.28,188.24,111.13,158.76,458.13,Unlimited,SBD,F,
Girls,60.1,2,Madison Delgado,Harlingen South,58.79,163.29,115.67,165.56,444.52,Unlimited,SBD,F,
Girls,60.1,3,Sally Rodriguez,Donna,59.96,170.1,92.99,149.69,412.77,Unlimited,SBD,F,
Girls,60.1,4,Averie Porras,Victoria East,59.15,131.54,83.91,142.88,358.34,Unlimited,SBD,F,
Girls,60.1,5,Genesis Vazquez,McAllen Rowe,58.01,129.27,83.91,138.35,351.53,Unlimited,SBD,F,
Girls,60.1,6,Aly Ovalle,La Joya Juarez-Lincoln,58.24,149.69,63.5,138.35,351.53,Unlimited,SBD,F,
Girls,60.1,7,Melanie Portillo,Rio Grande City,58.74,136.08,79.38,136.08,351.53,Unlimited,SBD,F,
Girls,60.1,8,Sarai Garcia,La Joya Palmview,59.92,145.15,63.5,122.47,331.12,Unlimited,SBD,F,
Girls,60.1,9,Natalia Cuevas,McAllen Memorial,59.1,136.08,68.04,120.2,324.32,Unlimited,SBD,F,
Girls,60.1,10,Taniya Coffman,San Antonio Southwest Legacy,59.33,127.01,61.23,136.08,324.32,Unlimited,SBD,F,
Girls,60.1,11,Miranda Cantu,McAllen Rowe,59.42,127.01,68.04,115.67,310.71,Unlimited,SBD,F,
Girls,60.1,DQ,Celeste Casas,Donna North,58.24,,,,,Unlimited,SBD,F,
Girls,60.1,DQ,Veronica Cuellar,Donna North,58.65,145.15,,,,Unlimited,SBD,F,
Girls,60.1,DQ,Julissa Espinoza,Weslaco East,59.06,,,,,Unlimited,SBD,F,
Girls,60.1,DQ,Emilie Salazar,Weslaco East,59.87,,,,,Unlimited,SBD,F,
Girls,67.36,1,Kaedyn Pulido,McAllen,67.22,185.97,97.52,142.88,426.38,Unlimited,SBD,F,
Girls,67.36,2,Deenah Brown,Brownsville Rivera,66.32,167.83,92.99,151.95,412.77,Unlimited,SBD,F,
Girls,67.36,3,Aira Cisneros,Donna North,65.45,158.76,92.99,149.69,401.43,Unlimited,SBD,F,
Girls,67.36,4,Isabela Garza,McAllen Rowe,66.63,154.22,102.06,136.08,392.36,Unlimited,SBD,F,
Girls,67.36,5,Hailey Trevino,Victoria East,65.45,151.95,72.57,122.47,347,Unlimited,SBD,F,
Girls,67.36,6,Jozelyn Palafox,La Joya Palmview,63.14,131.54,70.31,131.54,333.39,Unlimited,SBD,F,
Girls,67.36,7,Emily Gorman,McAllen Rowe,66.22,142.88,65.77,124.74,333.39,Unlimited,SBD,F,
Girls,67.36,8,Andrea Perrett,Donna,62.05,147.42,72.57,108.86,328.85,Unlimited,SBD,F,
Girls,67.36,9,Cadance Aguilar,McAllen Rowe,64.77,131.54,68.04,129.27,328.85,Unlimited,SBD,F,
Girls,67.36,10,Ella Ramirez,Harlingen South,64.36,127.01,58.97,138.35,324.32,Unlimited,SBD,F,
Girls,67.36,DQ,Jocelyn Espinoza,Donna,65.73,,,,,Unlimited,SBD,F,
Girls,67.36,DQ,Graciela Juarez,PSJA North,65.23,,,,,Unlimited,SBD,F,
Girls,67.36,DQ,Alannah Torres,Seguin,64.27,129.27,,,,Unlimited,SBD,F,
Girls,67.36,DQ,Ivette Gonzalez,Weslaco East,67.13,,,,,Unlimited,SBD,F,
Girls,75.07,1,Amira Rodriguez,Harlingen South,70.76,195.04,102.06,170.1,467.2,Unlimited,SBD,F,
Girls,75.07,2,Aryana Hernandez,San Antonio Wagner,74.98,185.97,106.59,170.1,462.66,Unlimited,SBD,F,
Girls,75.07,3,Amanda Soria-Cueto,McAllen Memorial,72.35,183.7,106.59,163.29,453.59,Unlimited,SBD,F,
Girls,75.07,4,Isabella Salinas,McAllen,72.48,170.1,102.06,133.81,405.97,Unlimited,SBD,F,
Girls,75.07,5,Andrea Gutierrez,McAllen Rowe,71.49,149.69,97.52,142.88,390.09,Unlimited,SBD,F,
Girls,75.07,6,Elieanna Santos,South San Antonio,73.94,142.88,79.38,140.61,362.87,Unlimited,SBD,F,
Girls,75.07,7,Lauren Lopez,Harlingen South,72.85,136.08,83.91,127.01,347,Unlimited,SBD,F,
Girls,75.07,8,Jasmerie Salinas,Victoria East,71.12,129.27,83.91,108.86,322.05,Unlimited,SBD,F,
Girls,75.07,9,Sofia Quintanilla,La Joya Palmview,75.07,129.27,68.04,120.2,317.51,Unlimited,SBD,F,
Girls,75.07,DQ,Alexia Leal,La Joya Palmview,73.75,120.2,,,,Unlimited,SBD,F,
Girls,75.07,DQ,Miley Campos,Donna,72.21,156.49,81.65,,,Unlimited,SBD,F,
Girls,75.07,DQ,Darlene Ortega,Donna North,73.62,,,,,Unlimited,SBD,F,
Girls,75.07,DQ,Mya Herrera,McAllen Memorial,69.76,,,,,Unlimited,SBD,F,
Girls,75.07,DQ,Emma Villafranca,McAllen,71.17,,,,,Unlimited,SBD,F,
Girls,75.07,DQ,Brianna Ibarra,Seguin,73.21,,,,,Unlimited,SBD,F,
Girls,75.07,DQ,Natalie Arredondo,Weslaco East,72.53,165.56,102.06,,,Unlimited,SBD,F,
Girls,75.07,DQ,Raelynn Torres,McAllen Memorial,70.4,,,,,Unlimited,SBD,F,
Girls,82.33,1,Kharli Garcia,Victoria East,81.19,226.8,122.47,195.04,544.31,Unlimited,SBD,F,
Girls,82.33,2,Jasmin Perez,La Joya Juarez-Lincoln,80.2,188.24,111.13,138.35,437.72,Unlimited,SBD,F,
Girls,82.33,3,Marissa Chavarria,San Antonio Southwest Legacy,79.74,147.42,108.86,167.83,424.11,Unlimited,SBD,F,
Girls,82.33,4,Carolina Herrera,McAllen Memorial,82.05,181.44,86.18,142.88,410.5,Unlimited,SBD,F,
Girls,82.33,5,Kelsea Bonuz,Victoria East,77.2,154.22,79.38,154.22,387.82,Unlimited,SBD,F,
Girls,82.33,6,Yoseline Cruz,San Antonio Southwest Legacy,75.25,149.69,88.45,147.42,385.55,Unlimited,SBD,F,
Girls,82.33,7,Bryana Arce,Seguin,80.65,165.56,72.57,147.42,385.55,Unlimited,SBD,F,
Girls,82.33,8,Destiny Sherchand,Donna North,78.7,145.15,81.65,131.54,358.34,Unlimited,SBD,F,
Girls,82.33,9,Camila Bazan,Rio Grande City,76.2,147.42,56.7,138.35,342.46,Unlimited,SBD,F,
Girls,82.33,10,Norma Espericueta,Donna,76.07,140.61,68.04,115.67,324.32,Unlimited,SBD,F,
Girls,82.33,DQ,Jestyne Sandoval,McAllen Memorial,81.51,,,,,Unlimited,SBD,F,
Girls,82.33,DQ,Abigail Hinojosa,McAllen,75.34,138.35,70.31,,,Unlimited,SBD,F,
Girls,82.33,DQ,Briana Almaguer,PSJA North,81.24,,,,,Unlimited,SBD,F,
Girls,82.33,DQ,Graciela Gonzalez,Victoria East,81.1,147.42,,,,Unlimited,SBD,F,
Girls,90.04,1,Olivia Zboral,Victoria East,87.68,215.46,131.54,176.9,523.9,Unlimited,SBD,F,
Girls,90.04,2,Deandra Ybarra,Donna,88.22,172.37,120.2,145.15,437.72,Unlimited,SBD,F,
Girls,90.04,3,Alhany Guerrero,McAllen,89.77,165.56,124.74,129.27,419.57,Unlimited,SBD,F,
Girls,90.04,4,Yakelyn Candelario,Donna North,86.18,179.17,90.72,142.88,412.77,Unlimited,SBD,F,
Girls,90.04,5,Victoria Jurado,Donna North,82.6,165.56,92.99,142.88,401.43,Unlimited,SBD,F,
Girls,90.04,6,Myrka Cuadros,Mission,87.95,165.56,74.84,133.81,374.21,Unlimited,SBD,F,
Girls,90.04,7,Yoanna Sanchez,La Joya Palmview,87.45,142.88,65.77,129.27,337.93,Unlimited,SBD,F,
Girls,90.04,8,Savannah Solis,McAllen Rowe,82.51,127.01,63.5,120.2,310.71,Unlimited,SBD,F,
Girls,90.04,9,Marcela Urbina,San Antonio Southwest Legacy,88.41,115.67,61.23,106.59,283.5,Unlimited,SBD,F,
Girls,90.04,10,Marjorie Sanchez,McAllen,84.78,104.33,49.9,99.79,254.01,Unlimited,SBD,F,
Girls,90.04,DQ,Annai Salinas,Edinburg Vela,82.37,92.99,,,,Unlimited,SBD,F,
Girls,90.04,DQ,Joanna Esparza,Brownsville Rivera,86.05,,,,,Unlimited,SBD,F,
Girls,90.04,DQ,Liza Flores,San Antonio Southwest Legacy,84.69,117.93,,,,Unlimited,SBD,F,
Girls,90.04,DQ,Isabella Chatys,San Antonio Southwest,89.81,,,,,Unlimited,SBD,F,
Girls,100.02,1,Abigail Garcia,Donna,96.71,176.9,106.59,172.37,455.86,Unlimited,SBD,F,
Girls,100.02,2,Mia De Los Santos,Victoria East,94.44,192.78,99.79,154.22,446.79,Unlimited,SBD,F,
Girls,100.02,3,Lorena Rosales,San Antonio Southside,95.57,170.1,102.06,172.37,444.52,Unlimited,SBD,F,
Girls,100.02,4,Sofia Pusateri,San Antonio Southwest,92.17,185.97,108.86,133.81,428.64,Unlimited,SBD,F,
Girls,100.02,5,Katelyn Zuniga,Donna,96.07,172.37,95.25,158.76,426.38,Unlimited,SBD,F,
Girls,100.02,6,Halee Guzinsky,PSJA North,95.89,158.76,117.93,142.88,419.57,Unlimited,SBD,F,
Girls,100.02,7,Madison Hernandez,Victoria East,98.47,165.56,113.4,136.08,415.04,Unlimited,SBD,F,
Girls,100.02,8,Alexandra Salazar,PSJA Memorial,93.98,167.83,81.65,158.76,408.23,Unlimited,SBD,F,
Girls,100.02,9,Dyanna Priestly,Seguin,95.93,174.63,92.99,140.61,408.23,Unlimited,SBD,F,
Girls,100.02,10,Virginia Velazquez,Donna,92.53,129.27,61.23,142.88,333.39,Unlimited,SBD,F,
Girls,100.02,DQ,Dayana Hernandez,Weslaco East,96.34,188.24,,,,Unlimited,SBD,F,
Girls,100.02,DQ,Madelynn Aguillon,McAllen,99.79,,,,,Unlimited,SBD,F,
Girls,100.02,DQ,Yanet Cruz,La Joya Juarez-Lincoln,99.79,,,,,Unlimited,SBD,F,
Girls,100.02,DQ,Anna Esquivel,La Joya Juarez-Lincoln,99.79,,,,,Unlimited,SBD,F,
Girls,110,1,Kayleen Garcia,Weslaco East,102.78,197.31,131.54,204.12,532.97,Unlimited,SBD,F,
Girls,110,2,Cecelia Bonuz,Victoria East,102.19,192.78,97.52,172.37,462.66,Unlimited,SBD,F,
Girls,110,3,Melanie Olvera,Donna North,102.51,192.78,108.86,158.76,460.4,Unlimited,SBD,F,
Girls,110,4,Penelope Tirado,San Antonio Southside,107.32,181.44,99.79,161.03,442.25,Unlimited,SBD,F,
Girls,110,5,Madison Herrera,Donna,106.32,174.63,74.84,151.95,401.43,Unlimited,SBD,F,
Girls,110,6,Mia Hurtado,La Joya Juarez-Lincoln,107,149.69,92.99,122.47,365.14,Unlimited,SBD,F,
Girls,110,7,Sarah Soliz,La Joya Palmview,103.65,170.1,70.31,122.47,362.87,Unlimited,SBD,F,
Girls,110,8,Azia Francis,Seguin,103.78,129.27,81.65,140.61,351.53,Unlimited,SBD,F,
Girls,110,9,Lizette Madrid,South San Antonio,106.23,138.35,79.38,129.27,347,Unlimited,SBD,F,
Girls,110,10,Alayna Elizalde,Edinburg Vela,101.33,151.95,65.77,113.4,331.12,Unlimited,SBD,F,
Girls,110,DQ,Magdalena Gamez,Harlingen South,102.29,158.76,79.38,,,Unlimited,SBD,F,
Girls,110,DQ,Valentina Castillo,PSJA Memorial,105.46,127.01,79.38,,,Unlimited,SBD,F,
Girls,110,DQ,Francis Azia,Seguin,109.77,,,,,Unlimited,SBD,F,
Girls,110+,1,Maya Magallanes,Rio Grande City,125.65,206.38,156.49,174.63,537.51,Unlimited,SBD,F,
Girls,110+,2,Alysa Guajardo,Harlingen South,111.04,188.24,124.74,172.37,485.34,Unlimited,SBD,F,
Girls,110+,3,Arianna Sanchez,San Antonio Southwest Legacy,110.09,181.44,120.2,161.03,462.66,Unlimited,SBD,F,
Girls,110+,4,Perla Ortiz,Rio Grande City,115.71,188.24,102.06,140.61,430.91,Unlimited,SBD,F,
Girls,110+,5,Emerald Finch,Victoria East,115.08,151.95,104.33,136.08,392.36,Unlimited,SBD,F,
Girls,110+,6,Jezell Garza,McAllen,111.54,156.49,102.06,122.47,381.02,Unlimited,SBD,F,
Girls,110+,7,Natalie Torres,Edinburg Vela,119.25,151.95,83.91,142.88,378.75,Unlimited,SBD,F,
Girls,110+,8,Valeria Vazquez,Victoria East,111.04,142.88,72.57,122.47,337.93,Unlimited,SBD,F,
Girls,110+,9,Danielle Guererro,Harlingen South,125.01,120.2,74.84,142.88,337.93,Unlimited,SBD,F,
Girls,110+,10,Dymond Redus,San Antonio Southwest,136.94,136.08,81.65,108.86,326.59,Unlimited,SBD,F,
Girls,110+,11,Victoria Santos,McAllen,131.5,104.33,70.31,104.33,278.96,Unlimited,SBD,F,
Girls,110+,DQ,Kaitlyn Vela,Brownsville Rivera,110.18,,,,,Unlimited,SBD,F,
Girls,110+,DQ,Alejandra Garcia,Mission,116.48,,,,,Unlimited,SBD,F,
Girls,110+,DQ,Cailey Sanchez,Victoria East,115.44,102.06,,,,Unlimited,SBD,F,
Girls,110+,DQ,Ashley Martinez,Rio Grande City,125.65,,,,,Unlimited,SBD,F,
